<svg version="1.1" viewBox="0 0 100 100" xmlns="http://www.w3.org/2000/svg">
 <g stroke-width=".93651">
  <path d="m43.151 94.996v-4.6406h-16.632v-0.04641q-1.6537 0.88172-3.0239 2.6916v1.9955z" fill="#b8824d"/>
  <path d="m43.151 90.355h0.04725v-3.1556h-16.679v3.1556z" fill="#2a7db4"/>
  <path d="m40.789 75.783q-2.4569-2.3667-5.9061-2.3667h-0.04725q-3.4492 0-5.8588 2.3667-2.4569 2.4131-2.4569 5.8008v5.6152h16.679v-5.6152q0-3.3877-2.4097-5.8008z" fill="#3498db"/>
  <path d="m47.092 94.996-0.5747-4.6406h16.632l-0.0057-0.04641q1.7629 0.88172 3.3572 2.6916l0.24712 1.9955z" fill="#b8824d"/>
  <path d="m46.518 90.355h-0.04725l-0.39079-3.1556h16.679l0.39079 3.1556z" fill="#2a7db4"/>
  <path d="m47.075 75.783q2.1638-2.3667 5.613-2.3667h0.04725q3.4492 0 6.1519 2.3667 2.7558 2.4131 3.1753 5.8008l0.69538 5.6152h-16.679l-0.69538-5.6152q-0.41953-3.3877 1.6913-5.8008z" fill="#3498db"/>
 </g>
 <path d="m62.896 81.204-0.41102-3.8306h-33.55l0.41102 3.8306z" fill="#b8824d" stroke-width=".90786"/>
 <path d="m59.775 52.12h-33.55l2.7097 25.253h33.55z" fill="#2ecc71" stroke-width=".90786"/>
 <g stroke-width=".9397">
  <path d="m16.61 78.726q2.9023 2.7419 7.1096 3.5398 4.4546-7.4504 6.1741-16.189l-12.629-2.3127q-1.1257 7.4807-0.65483 14.961z" fill="#ffe0b1"/>
  <path d="m30.362 66.171 0.46774-2.7846-14.453-2.643q-1.2161 0.56637-0.46774 2.7846l1.3564 0.23599 12.629 2.3127z" fill="#25a85c"/>
  <path d="m25.544 51.399h-0.04677q-0.54466-0.10306-1.0758-0.14159-4.7456-0.08241-8.0451 9.4866l14.453 2.643 0.60806-3.351q0.56128-3.0206-1.1693-5.6165-1.7306-2.5014-4.7241-3.0206z" fill="#2ecc71"/>
 </g>
 <path d="m26.86 74.377q2.2986 2.0641 3.9874 6.7083l0.18764 0.75058v-0.04691q2.9085-4.0813-4.1751-7.4119m-6.9428 5.9577q1.1728-0.09382 2.7677-0.65675 1.6419-0.56293 2.6739-1.2666 1.032-0.65675 0.93822-1.079-0.04691-0.37529-1.2666-0.28147-1.1259 0.14073-2.7677 0.65675-1.595 0.56293-2.627 1.2197-1.079 0.65675-1.032 1.079 0.09382 0.4222 1.3135 0.32838z" fill="#e7cba0" stroke-width=".93822"/>
 <path d="m30.848 81.085q-1.6888-4.6442-3.9874-6.7083l-9.0538 2.3925q-1.1259 0.28147-0.89131 1.3135l0.14073 0.51602q2.5332 11.352 9.0069 9.6637 2.2986-0.56293 4.5504-1.7357 1.5012-0.75058 1.2197-1.8764l-0.04691-0.23456q-0.37529-1.3604-0.75058-2.627v0.04691l-0.18764-0.75058m-8.1625-1.4073q-1.595 0.56293-2.7677 0.65675-1.2197 0.09382-1.3135-0.32838-0.04691-0.4222 1.032-1.079 1.032-0.65675 2.627-1.2197 1.6419-0.51602 2.7677-0.65675 1.2197-0.09382 1.2666 0.28147 0.09382 0.4222-0.93822 1.079-1.032 0.70366-2.6739 1.2666z" fill="#ffe0b1" stroke-width=".93822"/>
 <g stroke-width=".93968">
  <path d="m70.4 76.734q3.9499-0.58205 7.1809-3.3923-3.0936-8.1104-8.8918-14.87l-9.6338 8.4865q5.1782 5.5148 11.345 9.7757z" fill="#ffe0b1"/>
  <path d="m69.053 58.163-1.8974-2.0911-11.022 9.7146q-0.308 1.3057 1.8974 2.0911l1.025-0.9192 9.6338-8.4865z" fill="#25a85c"/>
  <path d="m54.469 52.802-0.02895 0.03673q-0.41809 0.36395-0.77714 0.75722-3.0024 3.676 2.4703 12.191l11.022-9.7146-2.2553-2.5519q-2.0248-2.3106-5.1347-2.5584-3.0358-0.1893-5.2966 1.8403z" fill="#2ecc71"/>
 </g>
 <path d="m71.971 65.64q2.9368-0.95864 7.8031-0.09916l0.74382 0.21277-0.04063-0.02345q-2.0802-4.5593-8.5063-0.09016m1.6882 8.9913q0.50511-1.0625 0.81506-2.7253 0.3334-1.7033 0.24002-2.9489-0.05276-1.2221-0.46529-1.352-0.34846-0.14701-0.87702 0.95616-0.44103 1.0454-0.81506 2.7253-0.30995 1.6627-0.2572 2.8848 0.0293 1.2627 0.41838 1.4332 0.41254 0.12984 0.9411-0.97333z" fill="#e7cba0" stroke-width=".9382"/>
 <path d="m79.774 65.54q-4.8663-0.85949-7.8031 0.09916l-2.4548 9.0369q-0.31916 1.1157 0.69187 1.4286l0.51724 0.13612q11.098 3.4822 12.872-2.9684 0.66177-2.2721 0.77195-4.8085 0.10054-1.6753-1.0152-1.9944l-0.22658-0.076651q-1.3658-0.35518-2.6503-0.66345l0.04063 0.02345-0.74382-0.21277m-5.2999 6.3652q-0.30995 1.6627-0.81506 2.7253-0.52857 1.1032-0.9411 0.97333-0.38908-0.17047-0.41838-1.4332-0.05275-1.2221 0.2572-2.8848 0.37403-1.6799 0.81506-2.7253 0.52857-1.1032 0.87702-0.95616 0.41254 0.12984 0.46529 1.352 0.09338 1.2456-0.24002 2.9489z" fill="#ffe0b1" stroke-width=".9382"/>
 <g stroke-width=".93822">
  <path d="m37.368 56.973q2.7677 1.8295 6.7083 1.8295t6.7083-1.8295q1.6419-1.079 2.2986-2.4394h-18.014q0.65675 1.3604 2.2986 2.4394z" fill="#d7bd93"/>
  <path d="m62.231 50.265q1.4542-9.476-0.046911-19.374-0.60984-4.1751-4.7849-4.1751h-28.475q-4.1282 0-4.7849 4.2689-1.4073 9.6637 0 19.327 0.65675 4.222 4.7849 4.222h28.475q4.1751 0 4.8318-4.2689z" fill="#ffe0b1"/>
  <path d="m39.808 38.912q-0.93822-1.032-2.3925-1.032t-2.4863 1.032q-0.93822 1.079-0.93822 2.5332t0.93822 2.4863q1.032 1.079 2.4863 1.079t2.3925-1.079q1.032-1.032 1.032-2.4863t-1.032-2.5332m7.6465 9.8044v-2.8147h-6.4268q-0.28147 0-0.51602 0.18764-0.28147 0.14073-0.37529 0.46911-0.09382 0.23456 0 0.56293 0.09382 0.46911 0.32838 0.89131 0.18764 0.37529 0.4222 0.70366h6.5675m9.8044-9.8044q-0.93822-1.032-2.3925-1.032t-2.4863 1.032q-0.93822 1.079-0.93822 2.5332t0.93822 2.4863q1.032 1.079 2.4863 1.079t2.3925-1.079q1.032-1.032 1.032-2.4863t-1.032-2.5332z" fill="#fff"/>
  <path d="m40.23 34.034q0.32838 0.14073 0.70366 0 0.32838-0.18764 0.51602-0.51602 0.14073-0.37529 0-0.70366-0.18764-0.37529-0.51602-0.51602-2.0641-0.89131-4.222 0.04691-1.4542 0.60984-2.3456 1.7826-0.23456 0.28147-0.18764 0.70366 0.04691 0.37529 0.37529 0.60984 0.28147 0.23456 0.70366 0.18764 0.37529-0.04691 0.60984-0.37529 0.60984-0.79749 1.595-1.1728 1.4073-0.60984 2.7677-0.04691m14.871 1.4542q0.98513 0.37529 1.595 1.1728 0.23456 0.32838 0.65675 0.37529 0.37529 0.04691 0.65675-0.18764 0.32838-0.23456 0.37529-0.60984 0.04691-0.4222-0.18764-0.70366-0.89131-1.1728-2.3456-1.7826-2.1579-0.93822-4.1751-0.04691-0.37529 0.14073-0.51602 0.51602-0.18764 0.32838 0 0.70366 0.14073 0.32838 0.51602 0.51602 0.32838 0.14073 0.70366 0 1.3135-0.56293 2.7208 0.04691z" fill="#b8824d"/>
 </g>
 <g fill="#7f7058" stroke-width=".93822">
  <path d="m50.691 48.013q0.23456-0.4222 0.37529-0.89131 0.04691-0.32838-0.04691-0.56293-0.09382-0.32838-0.32838-0.46911-0.28147-0.18764-0.56293-0.18764h-2.6739v2.8147h-6.5675q0.28147 0.46911 0.70366 0.8444 1.6888 1.6888 3.9874 1.6888t3.9405-1.6419l0.04691-0.04691q0.70366-0.70366 1.1259-1.5481z"/>
  <path d="m55.335 43.51q0.60984-0.8444 0.60984-2.0641t-0.60984-2.111q-0.56293-0.8444-1.4073-0.8444t-1.4542 0.8444q-0.56293 0.89131-0.56293 2.111t0.56293 2.0641q0.60984 0.89131 1.4542 0.89131t1.4073-0.89131z"/>
  <path d="m39.526 43.51q0.60984-0.8444 0.60984-2.0641t-0.60984-2.111q-0.56293-0.8444-1.4073-0.8444t-1.4542 0.8444q-0.56293 0.89131-0.56293 2.111t0.56293 2.0641q0.60984 0.89131 1.4542 0.89131t1.4073-0.89131z"/>
 </g>
 <path d="m22.497 24.229q-2.2517 12.197 1.1728 23.69 4.6442-4.3627 5.254-15.481 4.4565-16.513 37.06-27.443-23.69 5.0195-36.45 11.493l-2.7208 4.4565z" fill="#b8824d" stroke-width=".93822"/>
 <path d="m45.343 30.797q7.8341 2.2517 16.653 2.0172l0.93822 7.5996q4.2689-12.666 2.7677-17.826-2.0641-7.1774 0.28147-17.592-32.603 10.93-37.06 27.443 6.7552-4.5973 16.419-1.6419z" fill="#c48a51" stroke-width=".93822"/>
</svg>
